…
aisles_df = instacart |> 
  janitor::clean_names() |> 
  group_by(department, aisle) |> 
  summarize(n_obs = n()) |> 
  arrange(desc(n_obs))
```

    ## `summarise()` has grouped output by 'department'. You can override using the
    ## `.groups` argument.

``` r
aisles_df
```

    ## # A tibble: 134 × 3
    ## # Groups:   department [21]
    ##    department aisle                          n_obs
    ##    <chr>      <chr>                          <int>
    ##  1 produce    fresh vegetables              150609
    ##  2 produce    fresh fruits                  150473
    ##  3 produce    packaged vegetables fruits     78493
    ##  4 dairy eggs yogurt                         55240
    ##  5 dairy eggs packaged cheese                41699
    ##  6 beverages  water seltzer sparkling water  36617
    ##  7 dairy eggs milk                           32644
    ##  8 snacks     chips pretzels                 31269
    ##  9 dairy eggs soy lactosefree                26240
    ## 10 bakery     bread                          23635
    ## # ℹ 124 more rows
…
